UVMTB_reusable/encoder.vcd
$date
	Wed May 12 19:53:42 2021
$end

$version
	Synopsys VCS version R-2020.12
$end

$timescale
	10ps
$end

$comment Csum: 1 3a670afda5992e33 $end


$scope module top $end
$var reg 1 ! clk $end

$scope begin unnamed$$_vcs_2 $end
$upscope $end


$scope begin unnamed$$_vcs_0 $end
$upscope $end


$scope begin unnamed$$_vcs_1 $end
$upscope $end


$scope module intf $end
$var wire 1 " clk $end
$var reg 1 # reset $end
$var reg 1 $ startin $end
$var reg 1 % pushin $end
$var reg 9 & datain [8:0] $end
$var reg 10 ' dataout [9:0] $end
$var reg 1 ( startout $end
$var reg 1 ) pushout $end
$upscope $end


$scope module f $end
$var wire 10 * dout [9:0] $end

$scope module d1 $end
$var wire 1 " clk $end
$var wire 1 # reset $end
$var wire 1 % pushin $end
$var wire 9 & datain [8:0] $end
$var wire 1 $ startin $end
$var reg 1 ) pushout $end
$var reg 10 * dataout [9:0] $end
$var reg 1 ( startout $end
$var reg 6 + d6 [5:0] $end
$var reg 4 , d4 [3:0] $end
$var reg 1 - RD $end
$var reg 1 . RD_d $end
$var reg 10 / dataout_d [9:0] $end
$var reg 4 0 ones [3:0] $end
$var reg 4 1 zeros [3:0] $end
$var reg 1 2 startout_d $end
$var reg 1 3 pushout_d $end
$var integer 32 4 count $end
$var integer 32 5 count_d $end
$var integer 32 6 count_crc $end
$var integer 32 7 count_crc_d $end
$var reg 10 8 dataout_temp [9:0] $end
$var reg 10 9 dataout_temp_d [9:0] $end
$var reg 8 : crc32_in [7:0] $end
$var reg 1 ; crc32_valid_in $end
$var wire 32 < crc32_out [31:0] $end
$var reg 1 = rst_n $end
$var reg 8 > buffer [7:0] $end
$var reg 8 ? buffer_d [7:0] $end
$var reg 1 @ flag $end
$var reg 1 A flag_d $end
$var reg 9 B data_buffer [8:0] $end
$var reg 9 C data_buffer_d [8:0] $end
$var reg 3 D cs [2:0] $end
$var reg 3 E ns [2:0] $end

$scope module a $end
$var wire 1 " clk $end
$var wire 1 = rst_n $end
$var wire 8 : crc32_in [7:0] $end
$var wire 1 ; crc32_valid_in $end
$var wire 32 < crc32_out [31:0] $end
$var reg 32 F crc32_out_buff [31:0] $end
$var reg 32 G crc32_table [31:0] $end
$var wire 8 H crc32_lut_in [7:0] $end
$upscope $end

$upscope $end

$upscope $end

$upscope $end

$enddefinitions $end

#0
$dumpvars
0!
bxxxxxxxxxx '
b000000000 &
x-
x.
x;
x@
xA
x3
x=
x2
bxxxxxxxx >
bxxxxxxxx ?
bxxxxxxxxxxxxxxxxxxxxxxxxxxxxxxxx 4
bxxxxxxxxxxxxxxxxxxxxxxxxxxxxxxxx 6
bxxxxxxxxxxxxxxxxxxxxxxxxxxxxxxxx 7
bxxxxxxxxxxxxxxxxxxxxxxxxxxxxxxxx 5
b00000000 :
bxxxxxxxx H
bxxxxxxxxxxxxxxxxxxxxxxxxxxxxxxxx <
bxxxxxxxxxxxxxxxxxxxxxxxxxxxxxxxx F
bxxxxxxxxxxxxxxxxxxxxxxxxxxxxxxxx G
bxxx D
bxxxx ,
bxxxxxx +
bxxxxxxxxx B
bxxxxxxxxx C
bxxxxxxxxxx *
bxxxxxxxxxx /
bxxxxxxxxxx 8
bxxx E
bxxxxxxxxxx 9
bxxxx 1
bxxxx 0
0%
x)
1#
0$
x(
0"
$end
#500
1!
1"
1=
0)
b0000000000 *
b0000000000 '
0(
0-
b00000000000000000000000000000000 4
b0000000000 8
b000 D
0;
b00000000000000000000000000000000 6
b00000000 >
0@
b000000000 B
b11111111111111111111111111111111 F
b00000000000000000000000000000000 <
b11111111 H
b000 E
0.
b00000000000000000000000000000000 5
b0000000000 /
03
02
b00000000000000000000000000000000 7
0A
b00000000 ?
b000000000 C
b00101101000000101110111110001101 G
#1000
0!
0"
#1500
1!
1"
#2000
0!
0"
#2500
1!
1"
#3000
0!
0"
#3500
1!
1"
#4000
0!
0"
#4500
1!
1"
#4600
0#
#5000
0!
0"
#5500
1!
1"
0=
#5600
1%
1$
b100111100 &
b00111100 :
b11000011 H
b001 E
1.
b1001111100 /
13
12
1=
b00000010011011011001001100001010 G
#6000
0!
0"
#6500
1!
1"
0=
1-
b1001111100 *
b1001111100 '
1)
1(
b001 D
0.
b00000000000000000000000000000001 5
b0110000011 /
02
#6600
0$
#7000
0!
0"
#7500
1!
1"
0-
b00000000000000000000000000000001 4
b0110000011 *
b0110000011 '
0(
1.
b00000000000000000000000000000010 5
b1001111100 /
#8000
0!
0"
#8500
1!
1"
1-
b00000000000000000000000000000010 4
b1001111100 *
b1001111100 '
b010 E
0.
b00000000000000000000000000000000 5
b0110000011 /
#9000
0!
0"
#9500
1!
1"
0-
b00000000000000000000000000000000 4
b0110000011 *
b0110000011 '
b010 D
03
#9600
b110111100 &
b10111100 :
b01000011 H
b011 E
b0001010111 /
13
b11101111110101010001000000101010 G
#10000
0!
0"
#10500
1!
1"
b0001010111 *
b0001010111 '
b011 D
b0010111001 /
b00000000000000000000000000000001 7
b0010 ,
b111001 +
#10600
0%
#11000
0!
0"
#11500
1!
1"
b0010111001 *
b0010111001 '
b00000000000000000000000000000001 6
b00000000000000000000000000000010 7
#12000
0!
0"
#12500
1!
1"
b00000000000000000000000000000010 6
b00000000000000000000000000000011 7
#13000
0!
0"
#13500
1!
1"
b00000000000000000000000000000011 6
b100 E
#14000
0!
0"
#14500
1!
1"
b100 D
b000 E
b0101111100 /
#15000
0!
0"
#15500
1!
1"
b0101111100 *
b0101111100 '
b000 D
03
b00000000000000000000000000000000 7
1=
#16000
0!
0"
#16500
1!
1"
0=
0)
b00000000000000000000000000000000 6
1=
#17000
0!
0"
#17500
1!
1"
0=
#18000
0!
0"
#18500
1!
1"
#19000
0!
0"
#19500
1!
1"
#20000
0!
0"
#20500
1!
1"
#21000
0!
0"
#21500
1!
1"
#22000
0!
0"
#22500
1!
1"
#23000
0!
0"
#23500
1!
1"
#23600
1%
1$
b100111100 &
b00111100 :
b11000011 H
b001 E
1.
b1001111100 /
13
12
1=
b00000010011011011001001100001010 G
#24000
0!
0"
#24500
1!
1"
0=
1-
b1001111100 *
b1001111100 '
1)
1(
b001 D
0.
b00000000000000000000000000000001 5
b0110000011 /
02
#24600
0$
#25000
0!
0"
#25500
1!
1"
0-
b00000000000000000000000000000001 4
b0110000011 *
b0110000011 '
0(
1.
b00000000000000000000000000000010 5
b1001111100 /
#26000
0!
0"
#26500
1!
1"
1-
b00000000000000000000000000000010 4
b1001111100 *
b1001111100 '
b010 E
0.
b00000000000000000000000000000000 5
b0110000011 /
#27000
0!
0"
#27500
1!
1"
0-
b00000000000000000000000000000000 4
b0110000011 *
b0110000011 '
b010 D
03
#27600
b110111100 &
b10111100 :
b01000011 H
b011 E
b0001010111 /
13
b11101111110101010001000000101010 G
#28000
0!
0"
#28500
1!
1"
b0001010111 *
b0001010111 '
b011 D
b0010111001 /
b00000000000000000000000000000001 7
#28600
0%
#29000
0!
0"
#29500
1!
1"
b0010111001 *
b0010111001 '
b00000000000000000000000000000001 6
b00000000000000000000000000000010 7
#30000
0!
0"
#30500
1!
1"
b00000000000000000000000000000010 6
b00000000000000000000000000000011 7
#31000
0!
0"
#31500
1!
1"
b00000000000000000000000000000011 6
b100 E
#32000
0!
0"
#32500
1!
1"
b100 D
b000 E
b0101111100 /
#33000
0!
0"
#33500
1!
1"
b0101111100 *
b0101111100 '
b000 D
03
b00000000000000000000000000000000 7
1=
#34000
0!
0"
#34500
1!
1"
0=
0)
b00000000000000000000000000000000 6
1=
#35000
0!
0"
#35500
1!
1"
0=
#36000
0!
0"
#36500
1!
1"
#37000
0!
0"
#37500
1!
1"
#38000
0!
0"
#38500
1!
1"
#39000
0!
0"
#39500
1!
1"
#40000
0!
0"
#40500
1!
1"
#40600
1%
1$
b100111100 &
b00111100 :
b11000011 H
b001 E
1.
b1001111100 /
13
12
1=
b00000010011011011001001100001010 G
#41000
0!
0"
#41500
1!
1"
0=
1-
b1001111100 *
b1001111100 '
1)
1(
b001 D
0.
b00000000000000000000000000000001 5
b0110000011 /
02
#41600
0$
#42000
0!
0"
#42500
1!
1"
0-
b00000000000000000000000000000001 4
b0110000011 *
b0110000011 '
0(
1.
b00000000000000000000000000000010 5
b1001111100 /
#43000
0!
0"
#43500
1!
1"
1-
b00000000000000000000000000000010 4
b1001111100 *
b1001111100 '
b010 E
0.
b00000000000000000000000000000000 5
b0110000011 /
#44000
0!
0"
#44500
1!
1"
0-
b00000000000000000000000000000000 4
b0110000011 *
b0110000011 '
b010 D
03
#44600
b110111100 &
b10111100 :
b01000011 H
b011 E
b0001010111 /
13
b11101111110101010001000000101010 G
#45000
0!
0"
#45500
1!
1"
b0001010111 *
b0001010111 '
b011 D
b0010111001 /
b00000000000000000000000000000001 7
#45600
0%
#46000
0!
0"
#46500
1!
1"
b0010111001 *
b0010111001 '
b00000000000000000000000000000001 6
b00000000000000000000000000000010 7
#47000
0!
0"
#47500
1!
1"
b00000000000000000000000000000010 6
b00000000000000000000000000000011 7
#48000
0!
0"
#48500
1!
1"
b00000000000000000000000000000011 6
b100 E
#49000
0!
0"
#49500
1!
1"
b100 D
b000 E
b0101111100 /
#50000
0!
0"
#50500
1!
1"
b0101111100 *
b0101111100 '
b000 D
03
b00000000000000000000000000000000 7
1=
#51000
0!
0"
#51500
1!
1"
0=
0)
b00000000000000000000000000000000 6
1=
#52000
0!
0"
#52500
1!
1"
0=
#53000
0!
0"
#53500
1!
1"
#54000
0!
0"
#54500
1!
1"
#55000
0!
0"
#55500
1!
1"
#56000
0!
0"
#56500
1!
1"
#57000
0!
0"
#57500
1!
1"
#58000
0!
0"
#58500
1!
1"
#59000
0!
0"
#59500
1!
1"
#60000
0!
0"
#60500
1!
1"
#61000
0!
0"
#61500
1!
1"
#62000
0!
0"
#62500
1!
1"
#63000
0!
0"
#63500
1!
1"
#64000
0!
0"
#64500
1!
1"
#64600
1%
1$
b100111100 &
b00111100 :
b11000011 H
b001 E
1.
b1001111100 /
13
12
1=
b00000010011011011001001100001010 G
#65000
0!
0"
#65500
1!
1"
0=
1-
b1001111100 *
b1001111100 '
1)
1(
b001 D
0.
b00000000000000000000000000000001 5
b0110000011 /
02
#65600
0$
#66000
0!
0"
#66500
1!
1"
0-
b00000000000000000000000000000001 4
b0110000011 *
b0110000011 '
0(
1.
b00000000000000000000000000000010 5
b1001111100 /
#67000
0!
0"
#67500
1!
1"
1-
b00000000000000000000000000000010 4
b1001111100 *
b1001111100 '
b010 E
0.
b00000000000000000000000000000000 5
b0110000011 /
#68000
0!
0"
#68500
1!
1"
0-
b00000000000000000000000000000000 4
b0110000011 *
b0110000011 '
b010 D
03
#68600
b110111100 &
b10111100 :
b01000011 H
b011 E
b0001010111 /
13
b11101111110101010001000000101010 G
#69000
0!
0"
#69500
1!
1"
b0001010111 *
b0001010111 '
b011 D
b0010111001 /
b00000000000000000000000000000001 7
#69600
0%
#70000
0!
0"
#70500
1!
1"
b0010111001 *
b0010111001 '
b00000000000000000000000000000001 6
b00000000000000000000000000000010 7
#71000
0!
0"
#71500
1!
1"
b00000000000000000000000000000010 6
b00000000000000000000000000000011 7
#72000
0!
0"
#72500
1!
1"
b00000000000000000000000000000011 6
b100 E
#73000
0!
0"
#73500
1!
1"
b100 D
b000 E
b0101111100 /
#74000
0!
0"
#74500
1!
1"
b0101111100 *
b0101111100 '
b000 D
03
b00000000000000000000000000000000 7
1=
#75000
0!
0"
#75500
1!
1"
0=
0)
b00000000000000000000000000000000 6
1=
#76000
0!
0"
#76500
1!
1"
0=
#77000
0!
0"
#77500
1!
1"
#78000
0!
0"
#78500
1!
1"
#79000
0!
0"
#79500
1!
1"
#80000
0!
0"
#80500
1!
1"
#80600
1%
1$
b100111100 &
b00111100 :
b11000011 H
b001 E
1.
b1001111100 /
13
12
1=
b00000010011011011001001100001010 G
#81000
0!
0"
#81500
1!
1"
0=
1-
b1001111100 *
b1001111100 '
1)
1(
b001 D
0.
b00000000000000000000000000000001 5
b0110000011 /
02
#81600
0$
#82000
0!
0"
#82500
1!
1"
0-
b00000000000000000000000000000001 4
b0110000011 *
b0110000011 '
0(
1.
b00000000000000000000000000000010 5
b1001111100 /
#83000
0!
0"
#83500
1!
1"
1-
b00000000000000000000000000000010 4
b1001111100 *
b1001111100 '
b010 E
0.
b00000000000000000000000000000000 5
b0110000011 /
#84000
0!
0"
#84500
1!
1"
0-
b00000000000000000000000000000000 4
b0110000011 *
b0110000011 '
b010 D
03
#84600
b110111100 &
b10111100 :
b01000011 H
b011 E
b0001010111 /
13
b11101111110101010001000000101010 G
#85000
0!
0"
#85500
1!
1"
b0001010111 *
b0001010111 '
b011 D
b0010111001 /
b00000000000000000000000000000001 7
#85600
0%
#86000
0!
0"
#86500
1!
1"
b0010111001 *
b0010111001 '
b00000000000000000000000000000001 6
b00000000000000000000000000000010 7
#87000
0!
0"
#87500
1!
1"
b00000000000000000000000000000010 6
b00000000000000000000000000000011 7
#88000
0!
0"
#88500
1!
1"
b00000000000000000000000000000011 6
b100 E
#89000
0!
0"
#89500
1!
1"
b100 D
b000 E
b0101111100 /
#90000
0!
0"
#90500
1!
1"
b0101111100 *
b0101111100 '
b000 D
03
b00000000000000000000000000000000 7
1=
#91000
0!
0"
#91500
1!
1"
0=
0)
b00000000000000000000000000000000 6
1=
#92000
0!
0"
#92500
1!
1"
0=
#93000
0!
0"
#93500
1!
1"
#94000
0!
0"
#94500
1!
1"
#95000
0!
0"
#95500
1!
1"
#96000
0!
0"
#96500
1!
1"
#97000
0!
0"
#97500
1!
1"
#98000
0!
0"
#98500
1!
1"
#99000
0!
0"
#99500
1!
1"
#99600
1%
1$
b100111100 &
b00111100 :
b11000011 H
b001 E
1.
b1001111100 /
13
12
1=
b00000010011011011001001100001010 G
#100000
0!
0"
#100500
1!
1"
0=
1-
b1001111100 *
b1001111100 '
1)
1(
b001 D
0.
b00000000000000000000000000000001 5
b0110000011 /
02
#100600
0$
#101000
0!
0"
#101500
1!
1"
0-
b00000000000000000000000000000001 4
b0110000011 *
b0110000011 '
0(
1.
b00000000000000000000000000000010 5
b1001111100 /
#102000
0!
0"
#102500
1!
1"
1-
b00000000000000000000000000000010 4
b1001111100 *
b1001111100 '
b010 E
0.
b00000000000000000000000000000000 5
b0110000011 /
#103000
0!
0"
#103500
1!
1"
0-
b00000000000000000000000000000000 4
b0110000011 *
b0110000011 '
b010 D
03
#103600
b110111100 &
b10111100 :
b01000011 H
b011 E
b0001010111 /
13
b11101111110101010001000000101010 G
#104000
0!
0"
#104500
1!
1"
b0001010111 *
b0001010111 '
b011 D
b0010111001 /
b00000000000000000000000000000001 7
#104600
0%
#105000
0!
0"
#105500
1!
1"
b0010111001 *
b0010111001 '
b00000000000000000000000000000001 6
b00000000000000000000000000000010 7
#106000
0!
0"
#106500
1!
1"
b00000000000000000000000000000010 6
b00000000000000000000000000000011 7
#107000
0!
0"
#107500
1!
1"
b00000000000000000000000000000011 6
b100 E
#108000
0!
0"
#108500
1!
1"
b100 D
b000 E
b0101111100 /
#109000
0!
0"
#109500
1!
1"
b0101111100 *
b0101111100 '
b000 D
03
b00000000000000000000000000000000 7
1=
#110000
0!
0"
#110500
1!
1"
0=
0)
b00000000000000000000000000000000 6
1=
#111000
0!
0"
#111500
1!
1"
0=
#112000
0!
0"
#112500
1!
1"
#113000
0!
0"
#113500
1!
1"
#114000
0!
0"
#114500
1!
1"
#115000
0!
0"
#115500
1!
1"
#116000
0!
0"
#116500
1!
1"
#117000
0!
0"
#117500
1!
1"
#118000
0!
0"
#118500
1!
1"
#119000
0!
0"
#119500
1!
1"
#119600
1%
1$
b100111100 &
b00111100 :
b11000011 H
b001 E
1.
b1001111100 /
13
12
1=
b00000010011011011001001100001010 G
#120000
0!
0"
#120500
1!
1"
0=
1-
b1001111100 *
b1001111100 '
1)
1(
b001 D
0.
b00000000000000000000000000000001 5
b0110000011 /
02
#120600
0$
#121000
0!
0"
#121500
1!
1"
0-
b00000000000000000000000000000001 4
b0110000011 *
b0110000011 '
0(
1.
b00000000000000000000000000000010 5
b1001111100 /
#122000
0!
0"
#122500
1!
1"
1-
b00000000000000000000000000000010 4
b1001111100 *
b1001111100 '
b010 E
0.
b00000000000000000000000000000000 5
b0110000011 /
#123000
0!
0"
#123500
1!
1"
0-
b00000000000000000000000000000000 4
b0110000011 *
b0110000011 '
b010 D
03
#123600
b110111100 &
b10111100 :
b01000011 H
b011 E
b0001010111 /
13
b11101111110101010001000000101010 G
#124000
0!
0"
#124500
1!
1"
b0001010111 *
b0001010111 '
b011 D
b0010111001 /
b00000000000000000000000000000001 7
#124600
0%
#125000
0!
0"
#125500
1!
1"
b0010111001 *
b0010111001 '
b00000000000000000000000000000001 6
b00000000000000000000000000000010 7
#126000
0!
0"
#126500
1!
1"
b00000000000000000000000000000010 6
b00000000000000000000000000000011 7
#127000
0!
0"
#127500
1!
1"
b00000000000000000000000000000011 6
b100 E
#128000
0!
0"
#128500
1!
1"
b100 D
b000 E
b0101111100 /
#129000
0!
0"
#129500
1!
1"
b0101111100 *
b0101111100 '
b000 D
03
b00000000000000000000000000000000 7
1=
#130000
0!
0"
#130500
1!
1"
0=
0)
b00000000000000000000000000000000 6
1=
#131000
0!
0"
#131500
1!
1"
0=
#132000
0!
0"
#132500
1!
1"
#133000
0!
0"
#133500
1!
1"
#134000
0!
0"
#134500
1!
1"
#135000
0!
0"
#135500
1!
1"
#136000
0!
0"
#136500
1!
1"
#137000
0!
0"
#137500
1!
1"
#138000
0!
0"
#138500
1!
1"
#139000
0!
0"
#139500
1!
1"
#140000
0!
0"
#140500
1!
1"
#141000
0!
0"
#141500
1!
1"
#141600
1%
1$
b100111100 &
b00111100 :
b11000011 H
b001 E
1.
b1001111100 /
13
12
1=
b00000010011011011001001100001010 G
#142000
0!
0"
#142500
1!
1"
0=
1-
b1001111100 *
b1001111100 '
1)
1(
b001 D
0.
b00000000000000000000000000000001 5
b0110000011 /
02
#142600
0$
#143000
0!
0"
#143500
1!
1"
0-
b00000000000000000000000000000001 4
b0110000011 *
b0110000011 '
0(
1.
b00000000000000000000000000000010 5
b1001111100 /
#144000
0!
0"
#144500
1!
1"
1-
b00000000000000000000000000000010 4
b1001111100 *
b1001111100 '
b010 E
0.
b00000000000000000000000000000000 5
b0110000011 /
#145000
0!
0"
#145500
1!
1"
0-
b00000000000000000000000000000000 4
b0110000011 *
b0110000011 '
b010 D
03
#145600
b110111100 &
b10111100 :
b01000011 H
b011 E
b0001010111 /
13
b11101111110101010001000000101010 G
#146000
0!
0"
#146500
1!
1"
b0001010111 *
b0001010111 '
b011 D
b0010111001 /
b00000000000000000000000000000001 7
#146600
0%
#147000
0!
0"
#147500
1!
1"
b0010111001 *
b0010111001 '
b00000000000000000000000000000001 6
b00000000000000000000000000000010 7
#148000
0!
0"
#148500
1!
1"
b00000000000000000000000000000010 6
b00000000000000000000000000000011 7
#149000
0!
0"
#149500
1!
1"
b00000000000000000000000000000011 6
b100 E
#150000
0!
0"
#150500
1!
1"
b100 D
b000 E
b0101111100 /
#151000
0!
0"
#151500
1!
1"
b0101111100 *
b0101111100 '
b000 D
03
b00000000000000000000000000000000 7
1=
#152000
0!
0"
#152500
1!
1"
0=
0)
b00000000000000000000000000000000 6
1=
#153000
0!
0"
#153500
1!
1"
0=
#154000
0!
0"
#154500
1!
1"
#155000
0!
0"
#155500
1!
1"
#156000
0!
0"
#156500
1!
1"
#157000
0!
0"
#157500
1!
1"
#158000
0!
0"
#158500
1!
1"
#159000
0!
0"
#159500
1!
1"
#160000
0!
0"
#160500
1!
1"
#161000
0!
0"
#161500
1!
1"
#161600
1%
1$
b100111100 &
b00111100 :
b11000011 H
b001 E
1.
b1001111100 /
13
12
1=
b00000010011011011001001100001010 G
#162000
0!
0"
#162500
1!
1"
0=
1-
b1001111100 *
b1001111100 '
1)
1(
b001 D
0.
b00000000000000000000000000000001 5
b0110000011 /
02
#162600
0$
#163000
0!
0"
#163500
1!
1"
0-
b00000000000000000000000000000001 4
b0110000011 *
b0110000011 '
0(
1.
b00000000000000000000000000000010 5
b1001111100 /
#164000
0!
0"
#164500
1!
1"
1-
b00000000000000000000000000000010 4
b1001111100 *
b1001111100 '
b010 E
0.
b00000000000000000000000000000000 5
b0110000011 /
#165000
0!
0"
#165500
1!
1"
0-
b00000000000000000000000000000000 4
b0110000011 *
b0110000011 '
b010 D
03
#165600
b000110001 &
b00110001 :
b11001110 H
b1001110001 /
13
1;
b1001 ,
b110001 +
b01111100110111001110111110110111 G
#166000
0!
0"
#166500
1!
1"
b1001110001 *
b1001110001 '
b01111100001000110001000001001000 F
b10000011110111001110111110110111 <
b01111001 H
b00101001110110011100100110011000 G
#166600
b000011010 &
b00011010 :
b01010010 H
1.
b1101011010 /
b1101 ,
b011010 +
b10000101011001010011000011011000 G
#167000
0!
0"
#167500
1!
1"
1-
b1101011010 *
b1101011010 '
b10000101000110010001001111001000 F
b01111010111001101110110000110111 <
b11010010 H
0.
b0010011010 /
b0010 ,
b01101000110111011011001111111000 G
#167600
0%
b010110011 &
b10110011 :
b01111011 H
1.
b1101011010 /
03
0;
b11000111110101111010100010110100 G
#168000
0!
0"
#168500
1!
1"
0)
#168600
1%
b110111100 &
b10111100 :
b01110100 H
b011 E
b1110101000 /
13
b01010111011010001011010100100101 G
#169000
0!
0"
#169500
1!
1"
b1110101000 *
b1110101000 '
1)
b011 D
0.
b1001101000 /
b00000000000000000000000000000001 7
b00110111 ?
b1001 ,
b101000 +
#169600
0%
#170000
0!
0"
#170500
1!
1"
0-
b1001101000 *
b1001101000 '
b00000000000000000000000000000001 6
b00110111 >
1.
b0111101100 /
b00000000000000000000000000000010 7
b11101100 ?
b0111 ,
b101100 +
#171000
0!
0"
#171500
1!
1"
1-
b0111101100 *
b0111101100 '
b00000000000000000000000000000010 6
b11101100 >
0.
b1000100110 /
b00000000000000000000000000000011 7
b11100110 ?
b1000 ,
b100110 +
#172000
0!
0"
#172500
1!
1"
0-
b1000100110 *
b1000100110 '
b00000000000000000000000000000011 6
b11100110 >
b100 E
b0011011010 /
b01111010 ?
b0011 ,
b011010 +
#173000
0!
0"
#173500
1!
1"
b0011011010 *
b0011011010 '
b100 D
b01111010 >
b000 E
b0101111100 /
#174000
0!
0"
#174500
1!
1"
b0101111100 *
b0101111100 '
b000 D
03
b00000000000000000000000000000000 7
1=
b11111111111111111111111111111111 F
b00000000000000000000000000000000 <
b01000011 H
b11101111110101010001000000101010 G
#175000
0!
0"
#175500
1!
1"
0=
0)
b00000000000000000000000000000000 6
1=
#176000
0!
0"
#176500
1!
1"
0=
#177000
0!
0"
#177500
1!
1"
#178000
0!
0"
#178500
1!
1"
#179000
0!
0"
#179500
1!
1"
#180000
0!
0"
#180500
1!
1"
#180600
1%
1$
b100111100 &
b00111100 :
b11000011 H
b001 E
1.
b1001111100 /
13
12
1=
b00000010011011011001001100001010 G
#181000
0!
0"
#181500
1!
1"
0=
1-
b1001111100 *
b1001111100 '
1)
1(
b001 D
0.
b00000000000000000000000000000001 5
b0110000011 /
02
#181600
0$
#182000
0!
0"
#182500
1!
1"
0-
b00000000000000000000000000000001 4
b0110000011 *
b0110000011 '
0(
1.
b00000000000000000000000000000010 5
b1001111100 /
#183000
0!
0"
#183500
1!
1"
1-
b00000000000000000000000000000010 4
b1001111100 *
b1001111100 '
b010 E
0.
b00000000000000000000000000000000 5
b0110000011 /
#184000
0!
0"
#184500
1!
1"
0-
b00000000000000000000000000000000 4
b0110000011 *
b0110000011 '
b010 D
03
#184600
0%
b001110010 &
b01110010 :
b10001101 H
b10010011000010011111111110011101 G
#185000
0!
0"
#185500
1!
1"
0)
#185600
1%
b010101010 &
b10101010 :
b01010101 H
b0101101010 /
13
1;
b0101 ,
b101010 +
b00011011000000011010010101111011 G
#186000
0!
0"
#186500
1!
1"
b0101101010 *
b0101101010 '
1)
b00011011111111100101101010000100 F
b11100100000000011010010101111011 <
b00101110 H
b11011100110101100000110111001111 G
#186600
0%
b001100010 &
b01100010 :
b11100110 H
03
0;
b01001001011010010100011101001101 G
#187000
0!
0"
#187500
1!
1"
0)
#187600
1%
b110111100 &
b10111100 :
b00111000 H
b011 E
b0001010111 /
13
b00101000000000101011100010011110 G
#188000
0!
0"
#188500
1!
1"
b0001010111 *
b0001010111 '
1)
b011 D
1.
b1100011011 /
b00000000000000000000000000000001 7
b01111011 ?
b1100 ,
b011011 +
#188600
0%
#189000
0!
0"
#189500
1!
1"
1-
b1100011011 *
b1100011011 '
b00000000000000000000000000000001 6
b01111011 >
b0101100101 /
b00000000000000000000000000000010 7
b10100101 ?
b0101 ,
b100101 +
#190000
0!
0"
#190500
1!
1"
b0101100101 *
b0101100101 '
b00000000000000000000000000000010 6
b10100101 >
b1101010001 /
b00000000000000000000000000000011 7
b00000001 ?
b1101 ,
b010001 +
#191000
0!
0"
#191500
1!
1"
b1101010001 *
b1101010001 '
b00000000000000000000000000000011 6
b00000001 >
b100 E
b0111010100 /
b11100100 ?
b0111 ,
b010100 +
#192000
0!
0"
#192500
1!
1"
b0111010100 *
b0111010100 '
b100 D
b11100100 >
b000 E
0.
b1010000011 /
#193000
0!
0"
#193500
1!
1"
0-
b1010000011 *
b1010000011 '
b000 D
03
b00000000000000000000000000000000 7
1=
b11111111111111111111111111111111 F
b00000000000000000000000000000000 <
b01000011 H
b11101111110101010001000000101010 G
#194000
0!
0"
#194500
1!
1"
0=
0)
b00000000000000000000000000000000 6
1=
#195000
0!
0"
#195500
1!
1"
0=
#196000
0!
0"
#196500
1!
1"
#197000
0!
0"
#197500
1!
1"
#198000
0!
0"
#198500
1!
1"
#198600
1%
1$
b100111100 &
b00111100 :
b11000011 H
b001 E
1.
b1001111100 /
13
12
1=
b00000010011011011001001100001010 G
#199000
0!
0"
#199500
1!
1"
0=
1-
b1001111100 *
b1001111100 '
1)
1(
b001 D
0.
b00000000000000000000000000000001 5
b0110000011 /
02
#199600
0$
#200000
0!
0"
#200500
1!
1"
0-
b00000000000000000000000000000001 4
b0110000011 *
b0110000011 '
0(
1.
b00000000000000000000000000000010 5
b1001111100 /
#201000
0!
0"
#201500
1!
1"
1-
b00000000000000000000000000000010 4
b1001111100 *
b1001111100 '
b010 E
0.
b00000000000000000000000000000000 5
b0110000011 /
#202000
0!
0"
#202500
1!
1"
0-
b00000000000000000000000000000000 4
b0110000011 *
b0110000011 '
b010 D
03
#202600
b001011011 &
b01011011 :
b10100100 H
1.
b1010011011 /
13
1;
b1010 ,
b011011 +
b11010001101110110110011111110001 G
#203000
0!
0"
#203500
1!
1"
1-
b1010011011 *
b1010011011 '
b11010001010001001001100000001110 F
b00101110101110110110011111110001 <
b01010101 H
0.
b1010100100 /
b100100 +
b00011011000000011010010101111011 G
#203600
0%
b011110000 &
b11110000 :
b11111110 H
1.
b1010011011 /
03
0;
b01011010000001011101111100011011 G
#204000
0!
0"
#204500
1!
1"
0)
#204600
1%
b011011111 &
b11011111 :
b11010001 H
0.
b0110001010 /
13
1;
b0110 ,
b001010 +
b11110001110101001110001001000010 G
#205000
0!
0"
#205500
1!
1"
0-
b0110001010 *
b0110001010 '
1)
b11110001000001011010011011011010 F
b00001110111110100101100100100101 <
b00000101 H
1.
b0110110101 /
b110101 +
b01110000011010101111010010001111 G
#205600
0%
b000001011 &
b00001011 :
b11010001 H
0.
b0110001010 /
03
0;
b11110001110101001110001001000010 G
#206000
0!
0"
#206500
1!
1"
0)
#206600
b010010010 &
b10010010 :
b01001000 H
b01111000000001111100100110100010 G
#207000
0!
0"
#207500
1!
1"
#207600
1%
b110111100 &
b10111100 :
b01100110 H
b011 E
b0001010111 /
13
b10100100110100011100010001101101 G
#208000
0!
0"
#208500
1!
1"
b0001010111 *
b0001010111 '
1)
b011 D
b1001100101 /
b00000000000000000000000000000001 7
b00100101 ?
b1001 ,
b100101 +
#208600
0%
#209000
0!
0"
#209500
1!
1"
b1001100101 *
b1001100101 '
b00000000000000000000000000000001 6
b00100101 >
b1010011001 /
b00000000000000000000000000000010 7
b01011001 ?
b1010 ,
b011001 +
#210000
0!
0"
#210500
1!
1"
b1010011001 *
b1010011001 '
b00000000000000000000000000000010 6
b01011001 >
1.
b0111011010 /
b00000000000000000000000000000011 7
b11111010 ?
b0111 ,
b011010 +
#211000
0!
0"
#211500
1!
1"
1-
b0111011010 *
b0111011010 '
b00000000000000000000000000000011 6
b11111010 >
b100 E
0.
b0010001110 /
b00001110 ?
b0010 ,
b001110 +
#212000
0!
0"
#212500
1!
1"
0-
b0010001110 *
b0010001110 '
b100 D
b00001110 >
b000 E
b0101111100 /
#213000
0!
0"
#213500
1!
1"
b0101111100 *
b0101111100 '
b000 D
03
b00000000000000000000000000000000 7
1=
b11111111111111111111111111111111 F
b00000000000000000000000000000000 <
b01000011 H
b11101111110101010001000000101010 G
#214000
0!
0"
#214500
1!
1"
0=
0)
b00000000000000000000000000000000 6
1=
#215000
0!
0"
#215500
1!
1"
0=
#216000
0!
0"
#216500
1!
1"
#217000
0!
0"
#217500
1!
1"
#218000
0!
0"
#218500
1!
1"
#219000
0!
0"
#219500
1!
1"
#220000
0!
0"
#220500
1!
1"
#221000
0!
0"
#221500
1!
1"
#222000
0!
0"
#222500
1!
1"
#223000
0!
0"
#223500
1!
1"
#224000
0!
0"
#224500
1!
1"
#225000
0!
0"
#225500
1!
1"
#225600
1%
1$
b100111100 &
b00111100 :
b11000011 H
b001 E
1.
b1001111100 /
13
12
1=
b00000010011011011001001100001010 G
#226000
0!
0"
#226500
1!
1"
0=
1-
b1001111100 *
b1001111100 '
1)
1(
b001 D
0.
b00000000000000000000000000000001 5
b0110000011 /
02
#226600
0$
#227000
0!
0"
